[
    {"fields": {
        "username": "admin",
        "first_name": "",
        "last_name": "",
        "is_active": true,
        "is_superuser": true,
        "is_staff": true,
        "last_login": "2015-04-02T06:26:02.921Z",
        "groups": [],
        "user_permissions": [],
        "password": "pbkdf2_sha256$15000$LmOt3k1CAiYq$DsGyMZXYknUfcOxr3u2TQyyh6fZVHlAiPtR7LEnmxRY=",
        "email": "legal.miguel@gmail.com",
        "date_joined": "2015-03-30T22:55:14.396Z"
    },
        "model": "auth.user",
        "pk": 1
    },
    {"fields": {
        "username": "litatus",
        "first_name": "Miguel",
        "last_name": "Pereira",
        "is_active": true,
        "is_superuser": false,
        "is_staff": false,
        "last_login": "2015-03-31T22:49:47.116Z",
        "groups": [],
        "user_permissions": [],
        "password": "pbkdf2_sha256$15000$hvJCid0v5pcH$IXrHG7adZsztnnxV4MVQsl+15azWP4wOaRG76wWm6cg=",
        "email": "legal.miguel@gmail.com",
        "date_joined": "2015-03-30T22:56:52.507Z"
    },
        "model": "auth.user",
        "pk": 2
    },
    {"fields": {
        "username": "newuser",
        "first_name": "no te importa",
        "last_name": "lo que sea",
        "is_active": true,
        "is_superuser": false,
        "is_staff": false,
        "last_login": "2015-03-31T22:50:45.093Z",
        "groups": [],
        "user_permissions": [],
        "password": "pbkdf2_sha256$15000$draiIOMZVRXX$U2q8tFtGRaGZd2JnaHPHKV4k9pcsAbxv12NPZZKknhA=",
        "email": "01@gmail.com",
        "date_joined": "2015-03-31T22:50:45.093Z"
    },
        "model": "auth.user",
        "pk": 3
    },
    {"fields": {
        "username": "hernan",
        "first_name": "Herman",
        "last_name": "Medina",
        "is_active": true,
        "is_superuser": false,
        "is_staff": false,
        "last_login": "2015-04-02T00:34:26.061Z",
        "groups": [],
        "user_permissions": [],
        "password": "pbkdf2_sha256$15000$QSWa1TpVTXpB$3B222cZSTEiPW3GNV81RguA0wZa1pygiTymoYYeXE3M=",
        "email": "007@gmail.com",
        "date_joined": "2015-04-02T00:34:26.061Z"
    },
        "model": "auth.user",
        "pk": 4
    }
]